<?xml version="1.0" encoding="UTF-8"?>
<svg width="58px" height="58px" viewBox="0 0 58 58" version="1.1" xmlns="http://www.w3.org/2000/svg" xmlns:xlink="http://www.w3.org/1999/xlink">
    <!-- Generator: Sketch 52 (66869) - http://www.bohemiancoding.com/sketch -->
    <title>benefits__pic4</title>
    <desc>Created with Sketch.</desc>
    <g id="Desktop" stroke="none" stroke-width="1" fill="none" fill-rule="evenodd">
        <g id="11-01-partners" transform="translate(-1010.000000, -720.000000)" stroke-width="2">
            <g id="top" transform="translate(141.000000, 208.000000)">
                <g id="benefits__pic4" transform="translate(870.000000, 513.000000)">
                    <g id="icon/heart">
                        <circle id="Oval" stroke="#DD0016" fill="#F5F7FA" fill-rule="evenodd" cx="28" cy="28" r="28"></circle>
                        <path d="M28.0019212,22.2913919 C27.1488819,21.4915403 25.9967673,21 24.7277933,21 C22.116693,21 20,23.0807837 20,25.6475871 C20,29.9901679 27.4248294,34.769738 27.4248294,34.769738 C27.6921315,34.927798 27.821737,35 27.9903202,35 C28.178263,35 28.3078685,34.927798 28.5751706,34.769738 C28.5751706,34.769738 36,29.9901679 36,25.6475871 C36,23.0807837 33.883307,21 31.2722067,21 C30.0032327,21 28.851155,21.4915403 28.0019212,22.2913919 Z" id="Fill-1" stroke="#DD0016" stroke-linejoin="round"></path>
                        <path d="M28,35 C28.188,35 28.318,34.928 28.585,34.771 C28.585,34.771 36.01,29.99 36.01,25.647 C36.01,23.081 33.894,21 31.282,21 C30.014,21 28.861,21.492 28.012,22.292" id="Stroke-1" stroke="#000000" stroke-linecap="round" stroke-linejoin="round"></path>
                    </g>
                </g>
            </g>
        </g>
    </g>
</svg>