<?xml version="1.0" encoding="UTF-8"?>
<svg width="19px" height="19px" viewBox="0 0 19 19" version="1.1" xmlns="http://www.w3.org/2000/svg" xmlns:xlink="http://www.w3.org/1999/xlink">
    <!-- Generator: Sketch 54 (76480) - https://sketchapp.com -->
    <title>benefits-detail__pic2</title>
    <desc>Created with Sketch.</desc>
    <g id="Desktop" stroke="none" stroke-width="1" fill="none" fill-rule="evenodd">
        <g id="3-01-product-card-холодильник" transform="translate(-925.000000, -550.000000)">
            <g id="price" transform="translate(922.000000, 379.000000)">
                <g id="icons/install" transform="translate(0.000000, 169.000000)">
                    <g id="Group" transform="translate(11.667262, 12.667262) rotate(45.000000) translate(-11.667262, -12.667262) translate(5.667262, 2.167262)">
                        <rect id="Rectangle" fill="#4D7399" x="2" y="0" width="2" height="6" rx="1"></rect>
                        <rect id="Rectangle" fill="#4D7399" x="8" y="0" width="2" height="6" rx="1"></rect>
                        <rect id="Rectangle" fill="#4D7399" x="5" y="13" width="2" height="8" rx="1"></rect>
                        <path d="M0,4 L0,8 C3.38176876e-16,10.7614237 2.23857625,13 5,13 L7,13 C9.76142375,13 12,10.7614237 12,8 L12,4" id="Path-2" stroke="#4D7399" stroke-width="2" stroke-linecap="round"></path>
                        <rect id="Rectangle" fill="#4D7399" x="5" y="3" width="2" height="2" rx="1"></rect>
                    </g>
                </g>
            </g>
        </g>
    </g>
</svg>