<?xml version="1.0" encoding="UTF-8"?>
<svg width="16px" height="14px" viewBox="0 0 16 14" version="1.1" xmlns="http://www.w3.org/2000/svg" xmlns:xlink="http://www.w3.org/1999/xlink">
    <!-- Generator: Sketch 54 (76480) - https://sketchapp.com -->
    <title>download__link</title>
    <desc>Created with Sketch.</desc>
    <g id="Desktop" stroke="none" stroke-width="1" fill="none" fill-rule="evenodd" stroke-linecap="round">
        <g id="9-06-return" transform="translate(-167.000000, -518.000000)" stroke-width="2">
            <g id="download" transform="translate(165.000000, 513.000000)">
                <g id="download__link" transform="translate(0.000000, 2.000000)">
                    <g id="icon/download">
                        <polyline id="Path-9" stroke="#C7C7C7" points="6 9 10.0397949 12.0668945 14.0397949 9"></polyline>
                        <path d="M9.99633789,4 L9.99633789,12" id="Path-13" stroke="#C7C7C7"></path>
                        <path d="M3,12 L3,13 C3,14.6568542 4.34314575,16 6,16 L14,16 C15.6568542,16 17,14.6568542 17,13 L17,12" id="Path-12" stroke="#DD0016" stroke-linejoin="round"></path>
                    </g>
                </g>
            </g>
        </g>
    </g>
</svg>