<?xml version="1.0" encoding="UTF-8"?>
<svg width="16px" height="16px" viewBox="0 0 16 16" version="1.1" xmlns="http://www.w3.org/2000/svg" xmlns:xlink="http://www.w3.org/1999/xlink">
    <!-- Generator: Sketch 54 (76480) - https://sketchapp.com -->
    <title>sorting-view__list_active</title>
    <desc>Created with Sketch.</desc>
    <g id="Symbols" stroke="none" stroke-width="1" fill="none" fill-rule="evenodd">
        <g id="Selector/list" transform="translate(-58.000000, -8.000000)" fill="#DD0016">
            <path d="M59,8 L64,8 C64.5522847,8 65,8.44771525 65,9 L65,14 C65,14.5522847 64.5522847,15 64,15 L59,15 C58.4477153,15 58,14.5522847 58,14 L58,9 C58,8.44771525 58.4477153,8 59,8 Z M67.5,9 L73.5,9 C73.7761424,9 74,9.22385763 74,9.5 C74,9.77614237 73.7761424,10 73.5,10 L67.5,10 C67.2238576,10 67,9.77614237 67,9.5 C67,9.22385763 67.2238576,9 67.5,9 Z M67.5,11 L73.5,11 C73.7761424,11 74,11.2238576 74,11.5 C74,11.7761424 73.7761424,12 73.5,12 L67.5,12 C67.2238576,12 67,11.7761424 67,11.5 C67,11.2238576 67.2238576,11 67.5,11 Z M67.5,13 L69.5,13 C69.7761424,13 70,13.2238576 70,13.5 C70,13.7761424 69.7761424,14 69.5,14 L67.5,14 C67.2238576,14 67,13.7761424 67,13.5 C67,13.2238576 67.2238576,13 67.5,13 Z M59,17 L64,17 C64.5522847,17 65,17.4477153 65,18 L65,23 C65,23.5522847 64.5522847,24 64,24 L59,24 C58.4477153,24 58,23.5522847 58,23 L58,18 C58,17.4477153 58.4477153,17 59,17 Z M67.5,18 L73.5,18 C73.7761424,18 74,18.2238576 74,18.5 C74,18.7761424 73.7761424,19 73.5,19 L67.5,19 C67.2238576,19 67,18.7761424 67,18.5 C67,18.2238576 67.2238576,18 67.5,18 Z M67.5,20 L73.5,20 C73.7761424,20 74,20.2238576 74,20.5 C74,20.7761424 73.7761424,21 73.5,21 L67.5,21 C67.2238576,21 67,20.7761424 67,20.5 C67,20.2238576 67.2238576,20 67.5,20 Z M67.5,22 L69.5,22 C69.7761424,22 70,22.2238576 70,22.5 C70,22.7761424 69.7761424,23 69.5,23 L67.5,23 C67.2238576,23 67,22.7761424 67,22.5 C67,22.2238576 67.2238576,22 67.5,22 Z" id="sorting-view__list_active"></path>
        </g>
    </g>
</svg>